…
dat
#> A tibble: 3 x 2
#>   Species    data             
#>   <fct>      <list>           
#> 1 setosa     <tibble [50 × 4]>
#> 2 versicolor <tibble [50 × 4]>
#> 3 virginica  <tibble [50 × 4]>
```

nestされている`data`カラムは、listになっています。

```r
dat$data
#> [[1]]
#> # A tibble: 50 x 4
#>    Sepal.Length Sepal.Width Petal.Length Petal.Width
#>           <dbl>       <dbl>        <dbl>       <dbl>
#>  1          5.1         3.5          1.4         0.2
#>  2          4.9         3            1.4         0.2
#>  3          4.7         3.2          1.3         0.2
#> # … with 47 more rows
#> 
#> [[2]]
#> # A tibble: 50 x 4
#>    Sepal.Length Sepal.Width Petal.Length Petal.Width
#>           <dbl>       <dbl>        <dbl>       <dbl>
#>  1          7           3.2          4.7         1.4
#>  2          6.4         3.2          4.5         1.5
#>  3          6.9         3.1          4.9         1.5
#> # … with 47 more rows
#> 
#> [[3]]
#> # A tibble: 50 x 4
#>    Sepal.Length Sepal.Width Petal.Length Petal.Width
#>           <dbl>       <dbl>        <dbl>       <dbl>
#>  1          6.3         3.3          6           2.5
#>  2          5.8         2.7          5.1         1.9
#>  3          7.1         3            5.9         2.1
#> # … with 47 more rows
```
…
