…
library(tidyverse)

iris_long <-
  iris %>% 
  pivot_longer(cols = c(starts_with("Sepal"), starts_with("Petal")),
               names_to = c("key", ".value"),
               names_sep = "\\.") 

iris_long
```

```
> iris_long
# A tibble: 300 x 4
   Species key   Length Width
   <fct>   <chr>  <dbl> <dbl>
 1 setosa  Sepal    5.1   3.5
 2 setosa  Petal    1.4   0.2
 3 setosa  Sepal    4.9   3  
 4 setosa  Petal    1.4   0.2
 5 setosa  Sepal    4.7   3.2
 6 setosa  Petal    1.3   0.2
 7 setosa  Sepal    4.6   3.1
 8 setosa  Petal    1.5   0.2
 9 setosa  Sepal    5     3.6
10 setosa  Petal    1.4   0.2
# â€¦ with 290 more rows
```
…
```
> iris_nest
# A tibble: 2 x 2
  key   data              
  <chr> <list>            
1 Petal <tibble [150 Ã— 3]>
2 Sepal <tibble [150 Ã— 3]>
```

```
> iris_nest$data[[1]]
# A tibble: 150 x 3
   Species Length Width
   <fct>    <dbl> <dbl>
 1 setosa     1.4   0.2
 2 setosa     1.4   0.2
 3 setosa     1.3   0.2
 4 setosa     1.5   0.2
 5 setosa     1.4   0.2
 6 setosa     1.7   0.4
 7 setosa     1.4   0.3
 8 setosa     1.5   0.2
 9 setosa     1.4   0.2
10 setosa     1.5   0.1
# â€¦ with 140 more rows
```
…
